Absenteeism-at-work
…
.footnote[
[*] We may suggest a few reasons based on the results. Why this is happened.
]

---

# Table and Bar plot

.pull-left[

```
## # A tibble: 22 × 2
##      Age mean_absent_time_hours
##    <dbl>                  <dbl>
##  1    27                   3.86
##  2    28                   5.56
##  3    29                   4.43
##  4    30                   5.5 
##  5    31                   9.86
##  6    32                   3.69
##  7    33                  10.5 
##  8    34                  16.4 
##  9    36                   6.92
## 10    37                   5.96
## # … with 12 more rows
```
…
